{
    "licenses": [
      {
        "count": 1,
        "name": "MIT"
      },
      {
        "count": 1,
        "name": "BSD-3-Clause"
      },
      {
        "count": 1,
        "name": "New BSD"
      },
      {
        "count": 1,
        "name": "Apple Public Source License"
      },
      {
        "count": 1,
        "name": "Microsoft Public License"
      },
      {
        "count": 1,
        "name": "Apache 2.0"
      },
      {
        "count": 1,
        "name": "unknown"
      }
    ],
    "dependencies": [
      {
        "license": {
          "name": "MIT",
          "url": "http://opensource.org/licenses/mit-license"
        },
        "dependency": {
          "name": "actioncable",
          "url": "http://rubyonrails.org",
          "description": "WebSocket framework for Rails.",
          "paths": [
            "."
          ]
        }
      },
      {
        "license": {
          "name": "BSD-3-Clause",
          "url": "http://opensource.org/licenses/mit-license"
        },
        "dependency": {
          "name": "rake",
          "url": "https://github.com/ruby/rake",
          "description": "Rake is a Make-like program implemented in Ruby",
          "paths": [
            "."
          ]
        }
      },
      {
        "license": {
          "name": "Microsoft Public License",
          "url": "http://opensource.org/licenses/mit-license"
        },
        "dependency": {
          "name": "rb-inotify",
          "url": "https://github.com/guard/rb-inotify",
          "description": "A Ruby wrapper for Linux inotify, using FFI",
          "paths": [
            "."
          ]
        }
      },
      {
        "license": {
          "name": "unknown"
        },
        "dependency": {
          "name": "ruby-bundler-rails",
          "description": "",
          "paths": [
            "."
          ]
        }
      },
       {
        "license": {
          "name": "Apple Public Source License",
          "url": "http://opensource.org/licenses/mit-license"
        },
        "dependency": {
          "name": "apple-id",
          "url": "http://rubyonrails.org",
          "description": "WebSocket framework for Rails.",
          "paths": [
            "."
          ]
        }
      },
      {
        "license": {
          "name": "New BSD",
          "url": "http://opensource.org/licenses/BSD-3-Clause"
        },
        "dependency": {
          "name": "sqlite3",
          "url": "https://github.com/sparklemotion/sqlite3-ruby",
          "description": "This module allows Ruby programs to interface with the SQLite3 database engine (http://www.sqlite.org)",
          "paths": [
            "."
          ]
        }
      },
      {
        "license": {
          "name": "Apache 2.0",
          "url": "http://www.apache.org/licenses/LICENSE-2.0.txt"
        },
        "dependency": {
          "name": "thread_safe",
          "url": "https://github.com/ruby-concurrency/thread_safe",
          "description": "Thread-safe collections and utilities for Ruby",
          "paths": [
            "."
          ]
        }
      }
    ]
  }
  